%YAML 1.1
%TAG !u! tag:unity3d.com,2011:
--- !u!1 &4303683294671913828
GameObject:
  m_ObjectHideFlags: 0
  m_CorrespondingSourceObject: {fileID: 0}
  m_PrefabInstance: {fileID: 0}
  m_PrefabAsset: {fileID: 0}
  serializedVersion: 6
  m_Component:
  - component: {fileID: 4303683294671913829}
  m_Layer: 0
  m_Name: Maximilian
  m_TagString: Untagged
  m_Icon: {fileID: 0}
  m_NavMeshLayer: 0
  m_StaticEditorFlags: 0
  m_IsActive: 1
--- !u!4 &4303683294671913829
Transform:
  m_ObjectHideFlags: 0
  m_CorrespondingSourceObject: {fileID: 0}
  m_PrefabInstance: {fileID: 0}
  m_PrefabAsset: {fileID: 0}
  m_GameObject: {fileID: 4303683294671913828}
  m_LocalRotation: {x: 0, y: 0, z: 0, w: 1}
  m_LocalPosition: {x: 0, y: 0, z: 0}
  m_LocalScale: {x: 1, y: 1, z: 1}
  m_Children:
  - {fileID: 4303683295900375880}
  - {fileID: 3810233061370218684}
  m_Father: {fileID: 0}
  m_RootOrder: 0
  m_LocalEulerAnglesHint: {x: 0, y: 0, z: 0}
--- !u!1 &4303683295900375883
GameObject:
  m_ObjectHideFlags: 0
  m_CorrespondingSourceObject: {fileID: 0}
  m_PrefabInstance: {fileID: 0}
  m_PrefabAsset: {fileID: 0}
  serializedVersion: 6
  m_Component:
  - component: {fileID: 4303683295900375880}
  - component: {fileID: 4303683295900375881}
  - component: {fileID: 8596724520453396149}
  m_Layer: 0
  m_Name: Sprite
  m_TagString: Untagged
  m_Icon: {fileID: 0}
  m_NavMeshLayer: 0
  m_StaticEditorFlags: 0
  m_IsActive: 1
--- !u!4 &4303683295900375880
Transform:
  m_ObjectHideFlags: 0
  m_CorrespondingSourceObject: {fileID: 0}
  m_PrefabInstance: {fileID: 0}
  m_PrefabAsset: {fileID: 0}
  m_GameObject: {fileID: 4303683295900375883}
  m_LocalRotation: {x: 0.35355338, y: 0.35355338, z: -0.1464466, w: 0.8535535}
  m_LocalPosition: {x: -0.2, y: 0, z: -0.2}
  m_LocalScale: {x: 1, y: 1, z: 1}
  m_Children: []
  m_Father: {fileID: 4303683294671913829}
  m_RootOrder: 0
  m_LocalEulerAnglesHint: {x: 45, y: 45, z: 0}
--- !u!212 &4303683295900375881
SpriteRenderer:
  m_ObjectHideFlags: 0
  m_CorrespondingSourceObject: {fileID: 0}
  m_PrefabInstance: {fileID: 0}
  m_PrefabAsset: {fileID: 0}
  m_GameObject: {fileID: 4303683295900375883}
  m_Enabled: 1
  m_CastShadows: 0
  m_ReceiveShadows: 0
  m_DynamicOccludee: 1
  m_MotionVectors: 1
  m_LightProbeUsage: 1
  m_ReflectionProbeUsage: 1
  m_RenderingLayerMask: 1
  m_RendererPriority: 0
  m_Materials:
  - {fileID: 2100000, guid: 9c591aeebae964f40b12b9740db2e6c6, type: 2}
  m_StaticBatchInfo:
    firstSubMesh: 0
    subMeshCount: 0
  m_StaticBatchRoot: {fileID: 0}
  m_ProbeAnchor: {fileID: 0}
  m_LightProbeVolumeOverride: {fileID: 0}
  m_ScaleInLightmap: 1
  m_PreserveUVs: 0
  m_IgnoreNormalsForChartDetection: 0
  m_ImportantGI: 0
  m_StitchLightmapSeams: 1
  m_SelectedEditorRenderState: 0
  m_MinimumChartSize: 4
  m_AutoUVMaxDistance: 0.5
  m_AutoUVMaxAngle: 89
  m_LightmapParameters: {fileID: 0}
  m_SortingLayerID: -1987008703
  m_SortingLayer: 2
  m_SortingOrder: 0
  m_Sprite: {fileID: 21300000, guid: 43f33092ff539734f84c0249b88d9d7d, type: 3}
  m_Color: {r: 1, g: 1, b: 1, a: 1}
  m_FlipX: 0
  m_FlipY: 0
  m_DrawMode: 0
  m_Size: {x: 0.64, y: 0.64}
  m_AdaptiveModeThreshold: 0.5
  m_SpriteTileMode: 0
  m_WasSpriteAssigned: 1
  m_MaskInteraction: 0
  m_SpriteSortPoint: 1
--- !u!95 &8596724520453396149
Animator:
  serializedVersion: 3
  m_ObjectHideFlags: 0
  m_CorrespondingSourceObject: {fileID: 0}
  m_PrefabInstance: {fileID: 0}
  m_PrefabAsset: {fileID: 0}
  m_GameObject: {fileID: 4303683295900375883}
  m_Enabled: 1
  m_Avatar: {fileID: 0}
  m_Controller: {fileID: 9100000, guid: e29dfe926f7444e488bf7baf24de7cc5, type: 2}
  m_CullingMode: 0
  m_UpdateMode: 0
  m_ApplyRootMotion: 0
  m_LinearVelocityBlending: 0
  m_WarningMessage: 
  m_HasTransformHierarchy: 1
  m_AllowConstantClipSamplingOptimization: 1
  m_KeepAnimatorControllerStateOnDisable: 0
--- !u!1001 &4584719869508764309
PrefabInstance:
  m_ObjectHideFlags: 0
  serializedVersion: 2
  m_Modification:
    m_TransformParent: {fileID: 4303683294671913829}
    m_Modifications:
    - target: {fileID: 8803248852653420336, guid: 0d161d37089210d4682d4b9dff6be14f,
        type: 3}
      propertyPath: m_Name
      value: VFX_Maximilian_ConstantOilSpill
      objectReference: {fileID: 0}
    - target: {fileID: 810815772041742889, guid: 0d161d37089210d4682d4b9dff6be14f,
        type: 3}
      propertyPath: m_LocalPosition.x
      value: 0
      objectReference: {fileID: 0}
    - target: {fileID: 810815772041742889, guid: 0d161d37089210d4682d4b9dff6be14f,
        type: 3}
      propertyPath: m_LocalPosition.y
      value: 0
      objectReference: {fileID: 0}
    - target: {fileID: 810815772041742889, guid: 0d161d37089210d4682d4b9dff6be14f,
        type: 3}
      propertyPath: m_LocalPosition.z
      value: 0
      objectReference: {fileID: 0}
    - target: {fileID: 810815772041742889, guid: 0d161d37089210d4682d4b9dff6be14f,
        type: 3}
      propertyPath: m_LocalRotation.x
      value: 0
      objectReference: {fileID: 0}
    - target: {fileID: 810815772041742889, guid: 0d161d37089210d4682d4b9dff6be14f,
        type: 3}
      propertyPath: m_LocalRotation.y
      value: 0
      objectReference: {fileID: 0}
    - target: {fileID: 810815772041742889, guid: 0d161d37089210d4682d4b9dff6be14f,
        type: 3}
      propertyPath: m_LocalRotation.z
      value: 0
      objectReference: {fileID: 0}
    - target: {fileID: 810815772041742889, guid: 0d161d37089210d4682d4b9dff6be14f,
        type: 3}
      propertyPath: m_LocalRotation.w
      value: 1
      objectReference: {fileID: 0}
    - target: {fileID: 810815772041742889, guid: 0d161d37089210d4682d4b9dff6be14f,
        type: 3}
      propertyPath: m_RootOrder
      value: 1
      objectReference: {fileID: 0}
    - target: {fileID: 810815772041742889, guid: 0d161d37089210d4682d4b9dff6be14f,
        type: 3}
      propertyPath: m_LocalEulerAnglesHint.x
      value: 0
      objectReference: {fileID: 0}
    - target: {fileID: 810815772041742889, guid: 0d161d37089210d4682d4b9dff6be14f,
        type: 3}
      propertyPath: m_LocalEulerAnglesHint.y
      value: 0
      objectReference: {fileID: 0}
    - target: {fileID: 810815772041742889, guid: 0d161d37089210d4682d4b9dff6be14f,
        type: 3}
      propertyPath: m_LocalEulerAnglesHint.z
      value: 0
      objectReference: {fileID: 0}
    - target: {fileID: 4016839436723829703, guid: 0d161d37089210d4682d4b9dff6be14f,
        type: 3}
      propertyPath: m_Name
      value: OilParticles
      objectReference: {fileID: 0}
    - target: {fileID: 462871974644365496, guid: 0d161d37089210d4682d4b9dff6be14f,
        type: 3}
      propertyPath: m_Name
      value: OilSplatter
      objectReference: {fileID: 0}
    - target: {fileID: 8217326228181596463, guid: 0d161d37089210d4682d4b9dff6be14f,
        type: 3}
      propertyPath: InitialModule.startColor.maxColor.r
      value: 0.16981131
      objectReference: {fileID: 0}
    - target: {fileID: 8217326228181596463, guid: 0d161d37089210d4682d4b9dff6be14f,
        type: 3}
      propertyPath: InitialModule.startColor.maxColor.g
      value: 0.16981131
      objectReference: {fileID: 0}
    - target: {fileID: 8217326228181596463, guid: 0d161d37089210d4682d4b9dff6be14f,
        type: 3}
      propertyPath: InitialModule.startColor.maxColor.b
      value: 0.16981131
      objectReference: {fileID: 0}
    - target: {fileID: 8962268588178949127, guid: 0d161d37089210d4682d4b9dff6be14f,
        type: 3}
      propertyPath: InitialModule.startLifetime.scalar
      value: 30
      objectReference: {fileID: 0}
    - target: {fileID: 8962268588178949127, guid: 0d161d37089210d4682d4b9dff6be14f,
        type: 3}
      propertyPath: InitialModule.startColor.maxColor.r
      value: 0.16981131
      objectReference: {fileID: 0}
    - target: {fileID: 8962268588178949127, guid: 0d161d37089210d4682d4b9dff6be14f,
        type: 3}
      propertyPath: InitialModule.startColor.maxColor.g
      value: 0.16981131
      objectReference: {fileID: 0}
    - target: {fileID: 8962268588178949127, guid: 0d161d37089210d4682d4b9dff6be14f,
        type: 3}
      propertyPath: InitialModule.startColor.maxColor.b
      value: 0.16981131
      objectReference: {fileID: 0}
    m_RemovedComponents: []
  m_SourcePrefab: {fileID: 100100000, guid: 0d161d37089210d4682d4b9dff6be14f, type: 3}
--- !u!4 &3810233061370218684 stripped
Transform:
  m_CorrespondingSourceObject: {fileID: 810815772041742889, guid: 0d161d37089210d4682d4b9dff6be14f,
    type: 3}
  m_PrefabInstance: {fileID: 4584719869508764309}
  m_PrefabAsset: {fileID: 0}
