%YAML 1.1
%TAG !u! tag:unity3d.com,2011:
--- !u!114 &157214653079859234
MonoBehaviour:
  m_ObjectHideFlags: 0
  m_CorrespondingSourceObject: {fileID: 0}
  m_PrefabInstance: {fileID: 0}
  m_PrefabAsset: {fileID: 0}
  m_GameObject: {fileID: 2924969615548159714}
  m_Enabled: 1
  m_EditorHideFlags: 0
  m_Script: {fileID: 11500000, guid: c6fb4ec1769c20a48a18db27f3de12bc, type: 3}
  m_Name: 
  m_EditorClassIdentifier: 
--- !u!1 &2924969616025199643
GameObject:
  m_ObjectHideFlags: 0
  m_CorrespondingSourceObject: {fileID: 0}
  m_PrefabInstance: {fileID: 0}
  m_PrefabAsset: {fileID: 0}
  serializedVersion: 6
  m_Component:
  - component: {fileID: 2219374694789338632}
  m_Layer: 0
  m_Name: MountainGlacier_01
  m_TagString: Untagged
  m_Icon: {fileID: 0}
  m_NavMeshLayer: 0
  m_StaticEditorFlags: 0
  m_IsActive: 1
--- !u!4 &2219374694789338632
Transform:
  m_ObjectHideFlags: 0
  m_CorrespondingSourceObject: {fileID: 0}
  m_PrefabInstance: {fileID: 0}
  m_PrefabAsset: {fileID: 0}
  m_GameObject: {fileID: 2924969616025199643}
  m_LocalRotation: {x: 0, y: 0, z: 0, w: 1}
  m_LocalPosition: {x: 0, y: 0, z: 4}
  m_LocalScale: {x: 1, y: 1, z: 1}
  m_Children:
  - {fileID: 2219374694717056241}
  m_Father: {fileID: 0}
  m_RootOrder: 0
  m_LocalEulerAnglesHint: {x: 0, y: 0, z: 0}
--- !u!1001 &6608602854154325995
PrefabInstance:
  m_ObjectHideFlags: 0
  serializedVersion: 2
  m_Modification:
    m_TransformParent: {fileID: 2219374694789338632}
    m_Modifications:
    - target: {fileID: -927199367670048503, guid: b2f9ca1cd734a6d41b9056240cde9061,
        type: 3}
      propertyPath: m_Name
      value: MountainTile01
      objectReference: {fileID: 0}
    - target: {fileID: -4216859302048453862, guid: b2f9ca1cd734a6d41b9056240cde9061,
        type: 3}
      propertyPath: m_LocalPosition.x
      value: 0
      objectReference: {fileID: 0}
    - target: {fileID: -4216859302048453862, guid: b2f9ca1cd734a6d41b9056240cde9061,
        type: 3}
      propertyPath: m_LocalPosition.y
      value: -0.099
      objectReference: {fileID: 0}
    - target: {fileID: -4216859302048453862, guid: b2f9ca1cd734a6d41b9056240cde9061,
        type: 3}
      propertyPath: m_LocalPosition.z
      value: 0
      objectReference: {fileID: 0}
    - target: {fileID: -4216859302048453862, guid: b2f9ca1cd734a6d41b9056240cde9061,
        type: 3}
      propertyPath: m_LocalRotation.x
      value: -0
      objectReference: {fileID: 0}
    - target: {fileID: -4216859302048453862, guid: b2f9ca1cd734a6d41b9056240cde9061,
        type: 3}
      propertyPath: m_LocalRotation.y
      value: -0
      objectReference: {fileID: 0}
    - target: {fileID: -4216859302048453862, guid: b2f9ca1cd734a6d41b9056240cde9061,
        type: 3}
      propertyPath: m_LocalRotation.z
      value: -0
      objectReference: {fileID: 0}
    - target: {fileID: -4216859302048453862, guid: b2f9ca1cd734a6d41b9056240cde9061,
        type: 3}
      propertyPath: m_LocalRotation.w
      value: 1
      objectReference: {fileID: 0}
    - target: {fileID: -4216859302048453862, guid: b2f9ca1cd734a6d41b9056240cde9061,
        type: 3}
      propertyPath: m_RootOrder
      value: 0
      objectReference: {fileID: 0}
    - target: {fileID: -4216859302048453862, guid: b2f9ca1cd734a6d41b9056240cde9061,
        type: 3}
      propertyPath: m_LocalEulerAnglesHint.x
      value: 0
      objectReference: {fileID: 0}
    - target: {fileID: -4216859302048453862, guid: b2f9ca1cd734a6d41b9056240cde9061,
        type: 3}
      propertyPath: m_LocalEulerAnglesHint.y
      value: 0
      objectReference: {fileID: 0}
    - target: {fileID: -4216859302048453862, guid: b2f9ca1cd734a6d41b9056240cde9061,
        type: 3}
      propertyPath: m_LocalEulerAnglesHint.z
      value: 0
      objectReference: {fileID: 0}
    - target: {fileID: -4216859302048453862, guid: b2f9ca1cd734a6d41b9056240cde9061,
        type: 3}
      propertyPath: m_LocalScale.x
      value: 1
      objectReference: {fileID: 0}
    - target: {fileID: -4216859302048453862, guid: b2f9ca1cd734a6d41b9056240cde9061,
        type: 3}
      propertyPath: m_LocalScale.y
      value: 1
      objectReference: {fileID: 0}
    - target: {fileID: -4216859302048453862, guid: b2f9ca1cd734a6d41b9056240cde9061,
        type: 3}
      propertyPath: m_LocalScale.z
      value: 1
      objectReference: {fileID: 0}
    - target: {fileID: -1504981713932161579, guid: b2f9ca1cd734a6d41b9056240cde9061,
        type: 3}
      propertyPath: m_Materials.Array.data[0]
      value: 
      objectReference: {fileID: 2100000, guid: 8eee0fb19f71fca43b8111372796c27e, type: 2}
    m_RemovedComponents: []
  m_SourcePrefab: {fileID: 100100000, guid: b2f9ca1cd734a6d41b9056240cde9061, type: 3}
--- !u!1 &2924969615548159714 stripped
GameObject:
  m_CorrespondingSourceObject: {fileID: -927199367670048503, guid: b2f9ca1cd734a6d41b9056240cde9061,
    type: 3}
  m_PrefabInstance: {fileID: 6608602854154325995}
  m_PrefabAsset: {fileID: 0}
--- !u!4 &2219374694717056241 stripped
Transform:
  m_CorrespondingSourceObject: {fileID: -4216859302048453862, guid: b2f9ca1cd734a6d41b9056240cde9061,
    type: 3}
  m_PrefabInstance: {fileID: 6608602854154325995}
  m_PrefabAsset: {fileID: 0}
