%YAML 1.1
%TAG !u! tag:unity3d.com,2011:
--- !u!1 &8748563446467654509
GameObject:
  m_ObjectHideFlags: 0
  m_CorrespondingSourceObject: {fileID: 0}
  m_PrefabInstance: {fileID: 0}
  m_PrefabAsset: {fileID: 0}
  serializedVersion: 6
  m_Component:
  - component: {fileID: 5706761952797983102}
  - component: {fileID: 1743737120033407513}
  m_Layer: 0
  m_Name: PlateauTileOrchard01
  m_TagString: Untagged
  m_Icon: {fileID: 0}
  m_NavMeshLayer: 0
  m_StaticEditorFlags: 0
  m_IsActive: 1
--- !u!4 &5706761952797983102
Transform:
  m_ObjectHideFlags: 0
  m_CorrespondingSourceObject: {fileID: 0}
  m_PrefabInstance: {fileID: 0}
  m_PrefabAsset: {fileID: 0}
  m_GameObject: {fileID: 8748563446467654509}
  m_LocalRotation: {x: 0, y: 0, z: 0, w: 1}
  m_LocalPosition: {x: 0, y: 0, z: 0}
  m_LocalScale: {x: 1, y: 1, z: 1}
  m_Children:
  - {fileID: 7679783856755509416}
  m_Father: {fileID: 0}
  m_RootOrder: 0
  m_LocalEulerAnglesHint: {x: 0, y: 0, z: 0}
--- !u!65 &1743737120033407513
BoxCollider:
  m_ObjectHideFlags: 0
  m_CorrespondingSourceObject: {fileID: 0}
  m_PrefabInstance: {fileID: 0}
  m_PrefabAsset: {fileID: 0}
  m_GameObject: {fileID: 8748563446467654509}
  m_Material: {fileID: 0}
  m_IsTrigger: 0
  m_Enabled: 1
  serializedVersion: 2
  m_Size: {x: 1, y: 1, z: 1}
  m_Center: {x: 0, y: 0.5, z: 0}
--- !u!1001 &3453880985616688050
PrefabInstance:
  m_ObjectHideFlags: 0
  serializedVersion: 2
  m_Modification:
    m_TransformParent: {fileID: 5706761952797983102}
    m_Modifications:
    - target: {fileID: -927199367670048503, guid: 111cc5e5f1c647f499d698f97d4b0e61,
        type: 3}
      propertyPath: m_Name
      value: PlateauTile01
      objectReference: {fileID: 0}
    - target: {fileID: -4216859302048453862, guid: 111cc5e5f1c647f499d698f97d4b0e61,
        type: 3}
      propertyPath: m_LocalPosition.x
      value: 0
      objectReference: {fileID: 0}
    - target: {fileID: -4216859302048453862, guid: 111cc5e5f1c647f499d698f97d4b0e61,
        type: 3}
      propertyPath: m_LocalPosition.y
      value: -0.099
      objectReference: {fileID: 0}
    - target: {fileID: -4216859302048453862, guid: 111cc5e5f1c647f499d698f97d4b0e61,
        type: 3}
      propertyPath: m_LocalPosition.z
      value: 0
      objectReference: {fileID: 0}
    - target: {fileID: -4216859302048453862, guid: 111cc5e5f1c647f499d698f97d4b0e61,
        type: 3}
      propertyPath: m_LocalRotation.x
      value: 0
      objectReference: {fileID: 0}
    - target: {fileID: -4216859302048453862, guid: 111cc5e5f1c647f499d698f97d4b0e61,
        type: 3}
      propertyPath: m_LocalRotation.y
      value: 0
      objectReference: {fileID: 0}
    - target: {fileID: -4216859302048453862, guid: 111cc5e5f1c647f499d698f97d4b0e61,
        type: 3}
      propertyPath: m_LocalRotation.z
      value: 0
      objectReference: {fileID: 0}
    - target: {fileID: -4216859302048453862, guid: 111cc5e5f1c647f499d698f97d4b0e61,
        type: 3}
      propertyPath: m_LocalRotation.w
      value: 1
      objectReference: {fileID: 0}
    - target: {fileID: -4216859302048453862, guid: 111cc5e5f1c647f499d698f97d4b0e61,
        type: 3}
      propertyPath: m_RootOrder
      value: 0
      objectReference: {fileID: 0}
    - target: {fileID: -4216859302048453862, guid: 111cc5e5f1c647f499d698f97d4b0e61,
        type: 3}
      propertyPath: m_LocalEulerAnglesHint.x
      value: 0
      objectReference: {fileID: 0}
    - target: {fileID: -4216859302048453862, guid: 111cc5e5f1c647f499d698f97d4b0e61,
        type: 3}
      propertyPath: m_LocalEulerAnglesHint.y
      value: 0
      objectReference: {fileID: 0}
    - target: {fileID: -4216859302048453862, guid: 111cc5e5f1c647f499d698f97d4b0e61,
        type: 3}
      propertyPath: m_LocalEulerAnglesHint.z
      value: 0
      objectReference: {fileID: 0}
    - target: {fileID: -4216859302048453862, guid: 111cc5e5f1c647f499d698f97d4b0e61,
        type: 3}
      propertyPath: m_LocalScale.x
      value: 1
      objectReference: {fileID: 0}
    - target: {fileID: -4216859302048453862, guid: 111cc5e5f1c647f499d698f97d4b0e61,
        type: 3}
      propertyPath: m_LocalScale.y
      value: 1
      objectReference: {fileID: 0}
    - target: {fileID: -4216859302048453862, guid: 111cc5e5f1c647f499d698f97d4b0e61,
        type: 3}
      propertyPath: m_LocalScale.z
      value: 1
      objectReference: {fileID: 0}
    - target: {fileID: -1504981713932161579, guid: 111cc5e5f1c647f499d698f97d4b0e61,
        type: 3}
      propertyPath: m_Materials.Array.data[0]
      value: 
      objectReference: {fileID: 2100000, guid: 66609107f271dcd409e11f145d0a41a7, type: 2}
    m_RemovedComponents: []
  m_SourcePrefab: {fileID: 100100000, guid: 111cc5e5f1c647f499d698f97d4b0e61, type: 3}
--- !u!4 &7679783856755509416 stripped
Transform:
  m_CorrespondingSourceObject: {fileID: -4216859302048453862, guid: 111cc5e5f1c647f499d698f97d4b0e61,
    type: 3}
  m_PrefabInstance: {fileID: 3453880985616688050}
  m_PrefabAsset: {fileID: 0}
