%YAML 1.1
%TAG !u! tag:unity3d.com,2011:
--- !u!21 &2100000
Material:
  serializedVersion: 6
  m_ObjectHideFlags: 0
  m_CorrespondingSourceObject: {fileID: 0}
  m_PrefabInstance: {fileID: 0}
  m_PrefabAsset: {fileID: 0}
  m_Name: WaterDroplet
  m_Shader: {fileID: -6465566751694194690, guid: 9ceb038e7439cbc45b044e20c1f2116c,
    type: 3}
  m_ShaderKeywords: 
  m_LightmapFlags: 4
  m_EnableInstancingVariants: 1
  m_DoubleSidedGI: 0
  m_CustomRenderQueue: -1
  stringTagMap: {}
  disabledShaderPasses: []
  m_SavedProperties:
    serializedVersion: 3
    m_TexEnvs:
    - Texture2D_66648934:
        m_Texture: {fileID: 2800000, guid: 81d4b4e5b78aeb14ca22ab26188d9015, type: 3}
        m_Scale: {x: 1, y: 1}
        m_Offset: {x: 0, y: 0}
    m_Floats: []
    m_Colors:
    - Vector2_518F0B43: {r: 1, g: 1, b: 0, a: 0}
    - Vector2_6A15A02E: {r: 0.05, g: -0.18, b: 0, a: 0}
