%YAML 1.1
%TAG !u! tag:unity3d.com,2011:
--- !u!21 &2100000
Material:
  serializedVersion: 6
  m_ObjectHideFlags: 0
  m_CorrespondingSourceObject: {fileID: 0}
  m_PrefabInstance: {fileID: 0}
  m_PrefabAsset: {fileID: 0}
  m_Name: ElectricCenter_AB
  m_Shader: {fileID: -6465566751694194690, guid: 745499fbdeda3874f9c26bc7a3044685,
    type: 3}
  m_ShaderKeywords: 
  m_LightmapFlags: 4
  m_EnableInstancingVariants: 0
  m_DoubleSidedGI: 0
  m_CustomRenderQueue: -1
  stringTagMap:
    MotionVector: User
  disabledShaderPasses:
  - MOTIONVECTORS
  m_SavedProperties:
    serializedVersion: 3
    m_TexEnvs:
    - Texture2D_52923D71:
        m_Texture: {fileID: 2800000, guid: a1544c80363bfed4ca5c1ec0d28fee80, type: 3}
        m_Scale: {x: 1, y: 1}
        m_Offset: {x: 0, y: 0}
    m_Floats:
    - Vector1_343FD5F6: 0.01
    - Vector1_844EC708: 10
    - Vector1_D69B4A7B: 0
    m_Colors:
    - Color_29E3864C: {r: 8, g: 8, b: 8, a: 1}
    - Vector2_80D21E34: {r: 0, g: 0, b: 0, a: 0}
    - Vector2_EDE2EE35: {r: 0, g: 0, b: 0, a: 0}
