%YAML 1.1
%TAG !u! tag:unity3d.com,2011:
--- !u!114 &11400000
MonoBehaviour:
  m_ObjectHideFlags: 0
  m_CorrespondingSourceObject: {fileID: 0}
  m_PrefabInstance: {fileID: 0}
  m_PrefabAsset: {fileID: 0}
  m_GameObject: {fileID: 0}
  m_Enabled: 1
  m_EditorHideFlags: 0
  m_Script: {fileID: 11500000, guid: 9dc02eb45d7242144bad3bb3b3a6b909, type: 3}
  m_Name: RaptureMountain
  m_EditorClassIdentifier: 
  Body: {fileID: 2100000, guid: 8ef3412fdeb64634ea630e1d49cdc8bc, type: 2}
  Top: {fileID: 2100000, guid: 8ef3412fdeb64634ea630e1d49cdc8bc, type: 2}
  terrainType: 2
