%YAML 1.1
%TAG !u! tag:unity3d.com,2011:
--- !u!74 &7400000
AnimationClip:
  m_ObjectHideFlags: 0
  m_CorrespondingSourceObject: {fileID: 0}
  m_PrefabInstance: {fileID: 0}
  m_PrefabAsset: {fileID: 0}
  m_Name: Incarnate_Transform
  serializedVersion: 6
  m_Legacy: 0
  m_Compressed: 0
  m_UseHighQualityCurve: 1
  m_RotationCurves: []
  m_CompressedRotationCurves: []
  m_EulerCurves: []
  m_PositionCurves: []
  m_ScaleCurves: []
  m_FloatCurves: []
  m_PPtrCurves:
  - curve:
    - time: 0
      value: {fileID: -6770493537434373153, guid: 2ab1a8c86a4f8b64ebd889890254c839,
        type: 3}
    - time: 0.125
      value: {fileID: -3512298344228095538, guid: 2ab1a8c86a4f8b64ebd889890254c839,
        type: 3}
    - time: 0.25
      value: {fileID: -3822024893201797049, guid: 2ab1a8c86a4f8b64ebd889890254c839,
        type: 3}
    - time: 0.375
      value: {fileID: 1425984429072978737, guid: 2ab1a8c86a4f8b64ebd889890254c839,
        type: 3}
    - time: 0.5
      value: {fileID: -8061599109874882697, guid: 2ab1a8c86a4f8b64ebd889890254c839,
        type: 3}
    - time: 0.625
      value: {fileID: 2445753839571658566, guid: 2ab1a8c86a4f8b64ebd889890254c839,
        type: 3}
    - time: 0.75
      value: {fileID: -5666459646552216340, guid: 2ab1a8c86a4f8b64ebd889890254c839,
        type: 3}
    - time: 0.875
      value: {fileID: 6413572862989090413, guid: 2ab1a8c86a4f8b64ebd889890254c839,
        type: 3}
    - time: 1
      value: {fileID: 2235399475146245641, guid: 2ab1a8c86a4f8b64ebd889890254c839,
        type: 3}
    - time: 1.125
      value: {fileID: -1780803354095117073, guid: 2ab1a8c86a4f8b64ebd889890254c839,
        type: 3}
    - time: 1.25
      value: {fileID: -4714190515427459077, guid: 2ab1a8c86a4f8b64ebd889890254c839,
        type: 3}
    - time: 1.375
      value: {fileID: 5152322633301435145, guid: 2ab1a8c86a4f8b64ebd889890254c839,
        type: 3}
    - time: 1.5
      value: {fileID: 7350553962975850384, guid: 2ab1a8c86a4f8b64ebd889890254c839,
        type: 3}
    attribute: m_Sprite
    path: 
    classID: 212
    script: {fileID: 0}
  m_SampleRate: 8
  m_WrapMode: 0
  m_Bounds:
    m_Center: {x: 0, y: 0, z: 0}
    m_Extent: {x: 0, y: 0, z: 0}
  m_ClipBindingConstant:
    genericBindings:
    - serializedVersion: 2
      path: 0
      attribute: 0
      script: {fileID: 0}
      typeID: 212
      customType: 23
      isPPtrCurve: 1
    pptrCurveMapping:
    - {fileID: -6770493537434373153, guid: 2ab1a8c86a4f8b64ebd889890254c839, type: 3}
    - {fileID: -3512298344228095538, guid: 2ab1a8c86a4f8b64ebd889890254c839, type: 3}
    - {fileID: -3822024893201797049, guid: 2ab1a8c86a4f8b64ebd889890254c839, type: 3}
    - {fileID: 1425984429072978737, guid: 2ab1a8c86a4f8b64ebd889890254c839, type: 3}
    - {fileID: -8061599109874882697, guid: 2ab1a8c86a4f8b64ebd889890254c839, type: 3}
    - {fileID: 2445753839571658566, guid: 2ab1a8c86a4f8b64ebd889890254c839, type: 3}
    - {fileID: -5666459646552216340, guid: 2ab1a8c86a4f8b64ebd889890254c839, type: 3}
    - {fileID: 6413572862989090413, guid: 2ab1a8c86a4f8b64ebd889890254c839, type: 3}
    - {fileID: 2235399475146245641, guid: 2ab1a8c86a4f8b64ebd889890254c839, type: 3}
    - {fileID: -1780803354095117073, guid: 2ab1a8c86a4f8b64ebd889890254c839, type: 3}
    - {fileID: -4714190515427459077, guid: 2ab1a8c86a4f8b64ebd889890254c839, type: 3}
    - {fileID: 5152322633301435145, guid: 2ab1a8c86a4f8b64ebd889890254c839, type: 3}
    - {fileID: 7350553962975850384, guid: 2ab1a8c86a4f8b64ebd889890254c839, type: 3}
  m_AnimationClipSettings:
    serializedVersion: 2
    m_AdditiveReferencePoseClip: {fileID: 0}
    m_AdditiveReferencePoseTime: 0
    m_StartTime: 0
    m_StopTime: 1.625
    m_OrientationOffsetY: 0
    m_Level: 0
    m_CycleOffset: 0
    m_HasAdditiveReferencePose: 0
    m_LoopTime: 0
    m_LoopBlend: 0
    m_LoopBlendOrientation: 0
    m_LoopBlendPositionY: 0
    m_LoopBlendPositionXZ: 0
    m_KeepOriginalOrientation: 0
    m_KeepOriginalPositionY: 1
    m_KeepOriginalPositionXZ: 0
    m_HeightFromFeet: 0
    m_Mirror: 0
  m_EditorCurves: []
  m_EulerEditorCurves: []
  m_HasGenericRootTransform: 0
  m_HasMotionFloatCurves: 0
  m_Events:
  - time: 1.5
    functionName: AttackEnded
    data: 
    objectReferenceParameter: {fileID: 0}
    floatParameter: 0
    intParameter: 0
    messageOptions: 0
