%YAML 1.1
%TAG !u! tag:unity3d.com,2011:
--- !u!114 &11400000
MonoBehaviour:
  m_ObjectHideFlags: 0
  m_CorrespondingSourceObject: {fileID: 0}
  m_PrefabInstance: {fileID: 0}
  m_PrefabAsset: {fileID: 0}
  m_GameObject: {fileID: 0}
  m_Enabled: 1
  m_EditorHideFlags: 0
  m_Script: {fileID: 11500000, guid: 78a39e10f4e819f41b8f0397d0f01c85, type: 3}
  m_Name: 7B2423D0-30D0-4CDC-A418-C81148B3D6BF
  m_EditorClassIdentifier: 
  objectName: Stop_Mux_Glacier
  id: 1945283492
  guid: 7B2423D0-30D0-4CDC-A418-C81148B3D6BF
